-------------------------------------------------------------------------------
Test set: nl.bebr.xdat.travel.products.enrich.retresco.RetrescoFactFactoryTest
-------------------------------------------------------------------------------
Tests run: 4, Failures: 0, Errors: 0, Skipped: 0, Time elapsed: 7.249 s - in nl.bebr.xdat.travel.products.enrich.retresco.RetrescoFactFactoryTest
