# Created at 2019-10-15T10:38:58.377
System.exit() or native command error interrupted process checker.
java.lang.IllegalStateException: error [STOPPED] to read process 24476
	at org.apache.maven.surefire.booter.PpidChecker.checkProcessInfo(PpidChecker.java:145)
	at org.apache.maven.surefire.booter.PpidChecker.isProcessAlive(PpidChecker.java:116)
	at org.apache.maven.surefire.booter.ForkedBooter$2.run(ForkedBooter.java:214)
	at java.base/java.util.concurrent.Executors$RunnableAdapter.call(Executors.java:515)
	at java.base/java.util.concurrent.FutureTask.runAndReset(FutureTask.java:305)
	at java.base/java.util.concurrent.ScheduledThreadPoolExecutor$ScheduledFutureTask.run(ScheduledThreadPoolExecutor.java:305)
	at java.base/java.util.concurrent.ThreadPoolExecutor.runWorker(ThreadPoolExecutor.java:1128)
	at java.base/java.util.concurrent.ThreadPoolExecutor$Worker.run(ThreadPoolExecutor.java:628)
	at java.base/java.lang.Thread.run(Thread.java:834)


