-------------------------------------------------------------------------------
Test set: nl.bebr.xdat.travel.products.rest.AccommodationEventHandlerTest
-------------------------------------------------------------------------------
Tests run: 1, Failures: 0, Errors: 0, Skipped: 0, Time elapsed: 0.094 s - in nl.bebr.xdat.travel.products.rest.AccommodationEventHandlerTest
