<?xml version="1.0" encoding="UTF-8"?>
<testng-results total="1" passed="1" failed="0" skipped="0">
  <reporter-output>
  </reporter-output>
  <suite started-at="2019-10-13T09:44:13Z" name="Surefire suite" finished-at="2019-10-13T09:44:13Z" duration-ms="175">
    <groups>
    </groups>
    <test started-at="2019-10-13T09:44:13Z" name="Surefire test" finished-at="2019-10-13T09:44:13Z" duration-ms="175">
      <class name="nl.bebr.xdat.travel.products.enrich.osm.OSMEnrichmentHelperNGTest">
        <test-method is-config="true" signature="setUpClass()[pri:0, instance:nl.bebr.xdat.travel.products.enrich.osm.OSMEnrichmentHelperNGTest@abff8b7]" started-at="2019-10-13T11:44:13Z" name="setUpClass" finished-at="2019-10-13T11:44:13Z" duration-ms="15" status="PASS">
          <reporter-output>
          </reporter-output>
        </test-method> <!-- setUpClass -->
        <test-method is-config="true" signature="setUpMethod()[pri:0, instance:nl.bebr.xdat.travel.products.enrich.osm.OSMEnrichmentHelperNGTest@abff8b7]" started-at="2019-10-13T11:44:13Z" name="setUpMethod" finished-at="2019-10-13T11:44:13Z" duration-ms="0" status="PASS">
          <reporter-output>
          </reporter-output>
        </test-method> <!-- setUpMethod -->
        <test-method signature="testFilterMinimumInhabitants()[pri:0, instance:nl.bebr.xdat.travel.products.enrich.osm.OSMEnrichmentHelperNGTest@abff8b7]" started-at="2019-10-13T11:44:13Z" name="testFilterMinimumInhabitants" finished-at="2019-10-13T11:44:13Z" duration-ms="144" status="PASS">
          <reporter-output>
          </reporter-output>
        </test-method> <!-- testFilterMinimumInhabitants -->
        <test-method is-config="true" signature="tearDownClass()[pri:0, instance:nl.bebr.xdat.travel.products.enrich.osm.OSMEnrichmentHelperNGTest@abff8b7]" started-at="2019-10-13T11:44:13Z" name="tearDownClass" finished-at="2019-10-13T11:44:13Z" duration-ms="0" status="PASS">
          <reporter-output>
          </reporter-output>
        </test-method> <!-- tearDownClass -->
        <test-method is-config="true" signature="tearDownMethod()[pri:0, instance:nl.bebr.xdat.travel.products.enrich.osm.OSMEnrichmentHelperNGTest@abff8b7]" started-at="2019-10-13T11:44:13Z" name="tearDownMethod" finished-at="2019-10-13T11:44:13Z" duration-ms="0" status="PASS">
          <reporter-output>
          </reporter-output>
        </test-method> <!-- tearDownMethod -->
      </class> <!-- nl.bebr.xdat.travel.products.enrich.osm.OSMEnrichmentHelperNGTest -->
    </test> <!-- Surefire test -->
  </suite> <!-- Surefire suite -->
</testng-results>
