nl\bebr\xdat\travel\products\enrich\retresco\EnrichRetrescoApplication.class
nl\bebr\xdat\travel\products\enrich\retresco\RetrescoEnrichService.class
nl\bebr\xdat\travel\products\enrich\retresco\entities\RetrescoItem$RetrescoItemBuilder.class
nl\bebr\xdat\travel\products\enrich\retresco\entities\Section.class
nl\bebr\xdat\travel\products\enrich\retresco\entities\RetrescoResponse$RetrescoResponseBuilder.class
nl\bebr\xdat\travel\products\enrich\retresco\entities\RetrescoResponse.class
nl\bebr\xdat\travel\products\enrich\retresco\FlatFactsheet$FlatFactsheetBuilder.class
nl\bebr\xdat\travel\products\enrich\retresco\entities\SectionInfo.class
nl\bebr\xdat\travel\products\enrich\retresco\RetrescoFactFactory.class
nl\bebr\xdat\travel\products\enrich\retresco\entities\Factsheet$FactsheetBuilder.class
nl\bebr\xdat\travel\products\enrich\retresco\FlatFactsheet.class
nl\bebr\xdat\travel\products\enrich\retresco\entities\Fact.class
nl\bebr\xdat\travel\products\enrich\retresco\entities\Factsheet.class
nl\bebr\xdat\travel\products\enrich\retresco\entities\Fact$FactBuilder.class
nl\bebr\xdat\travel\products\enrich\retresco\entities\RetrescoItem.class
nl\bebr\xdat\travel\products\enrich\retresco\entities\Section$SectionBuilder.class
nl\bebr\xdat\travel\products\enrich\retresco\entities\FactInfo.class
